%YAML 1.1
%TAG !u! tag:unity3d.com,2011:
--- !u!114 &11400000
MonoBehaviour:
  m_ObjectHideFlags: 0
  m_CorrespondingSourceObject: {fileID: 0}
  m_PrefabInstance: {fileID: 0}
  m_PrefabAsset: {fileID: 0}
  m_GameObject: {fileID: 0}
  m_Enabled: 1
  m_EditorHideFlags: 0
  m_Script: {fileID: 11500000, guid: e449e492e4057ed47a07434a2d008724, type: 3}
  m_Name: TaskName
  m_EditorClassIdentifier: 
  english: Shred sticky notes
  arabic: "\u0645\u0644\u0635\u0642\u0627\u062A \u0627\u0644\u0645\u0644\u0627\u062D\u0638\u0627\u062A"
