%YAML 1.1
%TAG !u! tag:unity3d.com,2011:
--- !u!114 &11400000
MonoBehaviour:
  m_ObjectHideFlags: 0
  m_CorrespondingSourceObject: {fileID: 0}
  m_PrefabInstance: {fileID: 0}
  m_PrefabAsset: {fileID: 0}
  m_GameObject: {fileID: 0}
  m_Enabled: 1
  m_EditorHideFlags: 0
  m_Script: {fileID: 11500000, guid: e449e492e4057ed47a07434a2d008724, type: 3}
  m_Name: New Content 4
  m_EditorClassIdentifier: 
  english: 'Welcome to the evaluation experience. Here, you will test your learning
    on the clear desk policy. You will now be presented with a desk that has multiple
    security threats, threats that you have learned of in the training modules. Fix
    them within the given time to complete the challenge. Press the submit button
    whenever you are done to end the session and see your scores. '
  arabic: "\u0645\u0631\u062D\u0628\u0627 \u0628\u0643\u0645 \u0641\u064A \u0645\u0631\u062D\u0644\u0629
    \u0627\u0644\u0627\u062E\u062A\u0628\u0627\u0631. \u0647\u0646\u0627\u060C \u0633\u0648\u0641
    \u062A\u062E\u062A\u0628\u0631 \u062A\u0639\u0644\u0645\u0643 \u0644\u0633\u064A\u0627\u0633\u0629
    \u0627\u0644\u0645\u0643\u062A\u0628 \u0627\u0644\u0646\u0638\u064A\u0641. \u0633\u062A\u062A\u0639\u0631\u0641
    \u0627\u0644\u0622\u0646 \u0639\u0644\u0649 \u0645\u0643\u062A\u0628 \u064A\u062D\u062A\u0648\u064A
    \u0639\u0644\u0649 \u062A\u0647\u062F\u064A\u062F\u0627\u062A \u0623\u0645\u0646\u064A\u0629
    \u0645\u062A\u0639\u062F\u062F\u0629\u060C \u062A\u0647\u062F\u064A\u062F\u0627\u062A
    \u062A\u0639\u0644\u0645\u062A\u0647\u0627 \u0641\u064A \u0648\u062D\u062F\u0627\u062A
    \u0627\u0644\u062A\u062F\u0631\u064A\u0628. \u0642\u0645 \u0628\u0625\u0635\u0644\u0627\u062D\u0647\u0627
    \u0641\u064A \u0648\u0642\u062A \u0645\u0639\u064A\u0646 \u0644\u0625\u0643\u0645\u0627\u0644
    \u0627\u0644\u062A\u062D\u062F\u064A. \u0627\u0646\u0642\u0631 \u0639\u0644\u0649
    \u0632\u0631 \"\u062A\u062B\u0628\u064A\u062A\" \u0643\u0644\u0645\u0627 \u0627\u0646\u062A\u0647\u064A\u062A
    \u0645\u0646 \u0625\u0643\u0645\u0627\u0644 \u0627\u0644\u062F\u0648\u0631\u0629
    \u0648\u0627\u0637\u0644\u0639 \u0639\u0644\u0649 \u0639\u0644\u0627\u0645\u0627\u062A\u0643."
