%YAML 1.1
%TAG !u! tag:unity3d.com,2011:
--- !u!114 &11400000
MonoBehaviour:
  m_ObjectHideFlags: 0
  m_CorrespondingSourceObject: {fileID: 0}
  m_PrefabInstance: {fileID: 0}
  m_PrefabAsset: {fileID: 0}
  m_GameObject: {fileID: 0}
  m_Enabled: 1
  m_EditorHideFlags: 0
  m_Script: {fileID: 11500000, guid: e449e492e4057ed47a07434a2d008724, type: 3}
  m_Name: New Content 1
  m_EditorClassIdentifier: 
  english: "You don\u2019t have an active internet connection. Please check your internet
    and retry."
  arabic: "\u0644\u064A\u0633 \u0644\u062F\u064A\u0643 \u0627\u062A\u0635\u0627\u0644
    \u0628\u0627\u0644\u0627\u0646\u062A\u0631\u0646\u062A. \u064A\u0631\u062C\u0649
    \u0627\u0644\u062A\u062D\u0642\u0642 \u0645\u0646 \u0627\u0644\u0627\u0646\u062A\u0631\u0646\u062A
    \u0627\u0644\u062E\u0627\u0635 \u0628\u0643 \u0648 \u0623\u0639\u062F \u0627\u0644\u0645\u062D\u0627\u0648\u0644\u0629"
