%YAML 1.1
%TAG !u! tag:unity3d.com,2011:
--- !u!114 &11400000
MonoBehaviour:
  m_ObjectHideFlags: 0
  m_CorrespondingSourceObject: {fileID: 0}
  m_PrefabInstance: {fileID: 0}
  m_PrefabAsset: {fileID: 0}
  m_GameObject: {fileID: 0}
  m_Enabled: 1
  m_EditorHideFlags: 0
  m_Script: {fileID: 11500000, guid: e449e492e4057ed47a07434a2d008724, type: 3}
  m_Name: New Content 4
  m_EditorClassIdentifier: 
  english: In this module, you will be evaluated on your understanding of the "Clear
    Desk Policy", and its guidelines. You will need to remember everything from your
    training.
  arabic: "\u0641\u064A \u0647\u0630\u0647 \u0627\u0644\u0648\u062D\u062F\u0629\u060C
    \u0633\u064A\u062A\u0645 \u062A\u0642\u064A\u064A\u0645\u0643 \u0628\u0646\u0627\u0621\u064B
    \u0639\u0644\u0649 \u0641\u0647\u0645\u0643 \"\u0644\u0633\u064A\u0627\u0633\u0629
    \u0627\u0644\u0645\u0643\u062A\u0628 \u0627\u0644\u0646\u0638\u064A\u0641\" \u0648\u0625\u0631\u0634\u0627\u062F\u0627\u062A\u0647\u0627.
    \u0633\u0648\u0641 \u062A\u062D\u062A\u0627\u062C \u0625\u0644\u0649 \u062A\u0630\u0643\u0631
    \u0643\u0644 \u0634\u064A\u0621 \u0645\u0646 \u062A\u062F\u0631\u064A\u0628\u0643."
