%YAML 1.1
%TAG !u! tag:unity3d.com,2011:
--- !u!114 &11400000
MonoBehaviour:
  m_ObjectHideFlags: 0
  m_CorrespondingSourceObject: {fileID: 0}
  m_PrefabInstance: {fileID: 0}
  m_PrefabAsset: {fileID: 0}
  m_GameObject: {fileID: 0}
  m_Enabled: 1
  m_EditorHideFlags: 0
  m_Script: {fileID: 11500000, guid: e449e492e4057ed47a07434a2d008724, type: 3}
  m_Name: ModuleFinish
  m_EditorClassIdentifier: 
  english: 'Great job, you''ve completed module 1 successfully & are now ready to
    move on to the next module.  '
  arabic: "\u0644\u0642\u062F \u0623\u0643\u0645\u0644\u062A \u0628\u0646\u062C\u0627\u062D
    \u062A\u062F\u0631\u064A\u0628 \u0627\u0644\u0623\u0645\u0627\u0646 \u0639\u0628\u0631
    \u0627\u0644\u0625\u0646\u062A\u0631\u0646\u062A."
