%YAML 1.1
%TAG !u! tag:unity3d.com,2011:
--- !u!114 &11400000
MonoBehaviour:
  m_ObjectHideFlags: 0
  m_CorrespondingSourceObject: {fileID: 0}
  m_PrefabInstance: {fileID: 0}
  m_PrefabAsset: {fileID: 0}
  m_GameObject: {fileID: 0}
  m_Enabled: 1
  m_EditorHideFlags: 0
  m_Script: {fileID: 11500000, guid: e449e492e4057ed47a07434a2d008724, type: 3}
  m_Name: Finish
  m_EditorClassIdentifier: 
  english: You have successfully completed training on Confidential Physical Documents
  arabic: "\u0644\u0642\u062F \u0623\u0643\u0645\u0644\u062A \u0627\u0644\u062A\u062F\u0631\u064A\u0628
    \u0628\u0646\u062C\u0627\u062D \u062D\u0648\u0644 \u0627\u0644\u0645\u0633\u062A\u0646\u062F\u0627\u062A
    \u0627\u0644\u0645\u0627\u062F\u064A\u0629 \u0627\u0644\u0633\u0631\u064A\u0629"
