%YAML 1.1
%TAG !u! tag:unity3d.com,2011:
--- !u!114 &11400000
MonoBehaviour:
  m_ObjectHideFlags: 0
  m_CorrespondingSourceObject: {fileID: 0}
  m_PrefabInstance: {fileID: 0}
  m_PrefabAsset: {fileID: 0}
  m_GameObject: {fileID: 0}
  m_Enabled: 1
  m_EditorHideFlags: 0
  m_Script: {fileID: 11500000, guid: e449e492e4057ed47a07434a2d008724, type: 3}
  m_Name: New Content 3
  m_EditorClassIdentifier: 
  english: 'Module wise time '
  arabic: "\u062A\u0648\u0642\u064A\u062A \u0648\u062D\u062F\u0629 \u0627\u0644\u062A\u0631\u0634\u064A\u062F"
