%YAML 1.1
%TAG !u! tag:unity3d.com,2011:
--- !u!114 &11400000
MonoBehaviour:
  m_ObjectHideFlags: 0
  m_CorrespondingSourceObject: {fileID: 0}
  m_PrefabInstance: {fileID: 0}
  m_PrefabAsset: {fileID: 0}
  m_GameObject: {fileID: 0}
  m_Enabled: 1
  m_EditorHideFlags: 0
  m_Script: {fileID: 11500000, guid: e449e492e4057ed47a07434a2d008724, type: 3}
  m_Name: Description
  m_EditorClassIdentifier: 
  english: Tap inside the drawer to keep the document inside
  arabic: "\u0627\u0646\u0642\u0631 \u062F\u0627\u062E\u0644 \u0627\u0644\u062F\u0631\u062C
    \u0644\u0644\u062D\u0641\u0627\u0638 \u0639\u0644\u0649 \u0627\u0644\u0645\u0633\u062A\u0646\u062F
    \u0641\u064A \u0627\u0644\u062F\u0627\u062E\u0644"
