%YAML 1.1
%TAG !u! tag:unity3d.com,2011:
--- !u!114 &11400000
MonoBehaviour:
  m_ObjectHideFlags: 0
  m_CorrespondingSourceObject: {fileID: 0}
  m_PrefabInstance: {fileID: 0}
  m_PrefabAsset: {fileID: 0}
  m_GameObject: {fileID: 0}
  m_Enabled: 1
  m_EditorHideFlags: 0
  m_Script: {fileID: 11500000, guid: e449e492e4057ed47a07434a2d008724, type: 3}
  m_Name: TaskName
  m_EditorClassIdentifier: 
  english: Unattended Documents lying around
  arabic: "\u0627\u0644\u0648\u062B\u0627\u0626\u0642 \u063A\u064A\u0631 \u0627\u0644\u0645\u0631\u0627\u0642\u0628\u0629
    \u0641\u064A \u0643\u0644 \u0645\u0643\u0627\u0646"
