%YAML 1.1
%TAG !u! tag:unity3d.com,2011:
--- !u!114 &11400000
MonoBehaviour:
  m_ObjectHideFlags: 0
  m_CorrespondingSourceObject: {fileID: 0}
  m_PrefabInstance: {fileID: 0}
  m_PrefabAsset: {fileID: 0}
  m_GameObject: {fileID: 0}
  m_Enabled: 1
  m_EditorHideFlags: 0
  m_Script: {fileID: 11500000, guid: e449e492e4057ed47a07434a2d008724, type: 3}
  m_Name: Finish
  m_EditorClassIdentifier: 
  english: You have now ensured the safety of your external storage devices.
  arabic: "\u0644\u0642\u062F \u062A\u0623\u0643\u062F\u062A \u0627\u0644\u0622\u0646
    \u0645\u0646 \u0633\u0644\u0627\u0645\u0629 \u0623\u062C\u0647\u0632\u0629 \u062A\u062E\u0632\u064A\u0646\u0643
    \u0627\u0644\u062E\u0627\u0631\u062C\u064A\u0629."
