%YAML 1.1
%TAG !u! tag:unity3d.com,2011:
--- !u!114 &11400000
MonoBehaviour:
  m_ObjectHideFlags: 0
  m_CorrespondingSourceObject: {fileID: 0}
  m_PrefabInstance: {fileID: 0}
  m_PrefabAsset: {fileID: 0}
  m_GameObject: {fileID: 0}
  m_Enabled: 1
  m_EditorHideFlags: 0
  m_Script: {fileID: 11500000, guid: e449e492e4057ed47a07434a2d008724, type: 3}
  m_Name: TaskName
  m_EditorClassIdentifier: 
  english: External Storage Devices
  arabic: "\u0623\u062C\u0647\u0632\u0629 \u0627\u0644\u062A\u062E\u0632\u064A\u0646
    \u0627\u0644\u062E\u0627\u0631\u062C\u064A\u0629"
